%!PS-Adobe-3.0 EPSF-3.0
%%Title: vdllogo.fig
%%Creator: fig2dev Version 3.2 Patchlevel 5d
%%CreationDate: Fri Dec 20 11:10:38 2013
%%BoundingBox: 0 0 130 128
%Magnification: 1.0000
%%EndComments
%%BeginProlog
/$F2psDict 200 dict def
$F2psDict begin
$F2psDict /mtrx matrix put
/col-1 {0 setgray} bind def
/col0 {0.000 0.000 0.000 srgb} bind def
/col1 {0.000 0.000 1.000 srgb} bind def
/col2 {0.000 1.000 0.000 srgb} bind def
/col3 {0.000 1.000 1.000 srgb} bind def
/col4 {1.000 0.000 0.000 srgb} bind def
/col5 {1.000 0.000 1.000 srgb} bind def
/col6 {1.000 1.000 0.000 srgb} bind def
/col7 {1.000 1.000 1.000 srgb} bind def
/col8 {0.000 0.000 0.560 srgb} bind def
/col9 {0.000 0.000 0.690 srgb} bind def
/col10 {0.000 0.000 0.820 srgb} bind def
/col11 {0.530 0.810 1.000 srgb} bind def
/col12 {0.000 0.560 0.000 srgb} bind def
/col13 {0.000 0.690 0.000 srgb} bind def
/col14 {0.000 0.820 0.000 srgb} bind def
/col15 {0.000 0.560 0.560 srgb} bind def
/col16 {0.000 0.690 0.690 srgb} bind def
/col17 {0.000 0.820 0.820 srgb} bind def
/col18 {0.560 0.000 0.000 srgb} bind def
/col19 {0.690 0.000 0.000 srgb} bind def
/col20 {0.820 0.000 0.000 srgb} bind def
/col21 {0.560 0.000 0.560 srgb} bind def
/col22 {0.690 0.000 0.690 srgb} bind def
/col23 {0.820 0.000 0.820 srgb} bind def
/col24 {0.500 0.190 0.000 srgb} bind def
/col25 {0.630 0.250 0.000 srgb} bind def
/col26 {0.750 0.380 0.000 srgb} bind def
/col27 {1.000 0.500 0.500 srgb} bind def
/col28 {1.000 0.630 0.630 srgb} bind def
/col29 {1.000 0.750 0.750 srgb} bind def
/col30 {1.000 0.880 0.880 srgb} bind def
/col31 {1.000 0.840 0.000 srgb} bind def
/col32 {0.667 0.667 0.667 srgb} bind def
/col33 {0.333 0.333 0.333 srgb} bind def
/col34 {0.200 0.200 0.200 srgb} bind def

end

/cp {closepath} bind def
/ef {eofill} bind def
/gr {grestore} bind def
/gs {gsave} bind def
/sa {save} bind def
/rs {restore} bind def
/l {lineto} bind def
/m {moveto} bind def
/rm {rmoveto} bind def
/n {newpath} bind def
/s {stroke} bind def
/sh {show} bind def
/slc {setlinecap} bind def
/slj {setlinejoin} bind def
/slw {setlinewidth} bind def
/srgb {setrgbcolor} bind def
/rot {rotate} bind def
/sc {scale} bind def
/sd {setdash} bind def
/ff {findfont} bind def
/sf {setfont} bind def
/scf {scalefont} bind def
/sw {stringwidth} bind def
/tr {translate} bind def
/tnt {dup dup currentrgbcolor
  4 -2 roll dup 1 exch sub 3 -1 roll mul add
  4 -2 roll dup 1 exch sub 3 -1 roll mul add
  4 -2 roll dup 1 exch sub 3 -1 roll mul add srgb}
  bind def
/shd {dup dup currentrgbcolor 4 -2 roll mul 4 -2 roll mul
  4 -2 roll mul srgb} bind def
 /DrawEllipse {
	/endangle exch def
	/startangle exch def
	/yrad exch def
	/xrad exch def
	/y exch def
	/x exch def
	/savematrix mtrx currentmatrix def
	x y tr xrad yrad sc 0 0 1 startangle endangle arc
	closepath
	savematrix setmatrix
	} def

/$F2psBegin {$F2psDict begin /$F2psEnteredState save def} def
/$F2psEnd {$F2psEnteredState restore end} def

/pageheader {
save
newpath 0 128 moveto 0 0 lineto 130 0 lineto 130 128 lineto closepath clip newpath
-311.1 405.4 translate
1 -1 scale
$F2psBegin
10 setmiterlimit
0 slj 0 slc
 0.06299 0.06299 sc
} bind def
/pagefooter {
$F2psEnd
restore
} bind def
%%EndProlog
pageheader
%
% Fig objects follow
%
% 
% here starts figure with depth 53
% Polyline
0 slj
0 slc
7.500 slw
n 4950 4950 m 4950 5850 l 5760 5850 l 5760 4950 l
 4950 4950 l  cp gs col32 1.00 shd ef gr gs col0 s gr 
% here ends figure;
% 
% here starts figure with depth 51
% Polyline
0 slj
0 slc
0.000 slw
n 5355 5535 m 5490 5535 l 5490 5625 l 5355 5625 l
 cp gs col33 1.00 shd ef gr 
% Polyline
n 5355 5085 m 5490 5085 l 5490 5220 l 5355 5220 l
 cp gs col33 1.00 shd ef gr 
% Polyline
7.500 slw
n 6975 4770 m 5760 4860 l 5760 5985 l
 6975 6075 l gs col33 1.00 shd ef gr gs col0 s gr 
% Polyline
n 5355 5085 m 5490 5085 l 5490 5265 l 5355 5265 l
 cp gs col0 s gr 
% Polyline
n 5355 5535 m 5490 5535 l 5490 5715 l 5355 5715 l
 cp gs col0 s gr 
% Polyline
n 4995 5850 m 5760 5850 l 5760 5895 l 4995 5895 l
 cp gs 0.00 setgray ef gr gs col0 s gr 
% Polyline
n 6975 4860 m 5805 4905 l 5805 5940 l
 6975 5985 l gs col34 1.00 shd ef gr gs col0 s gr 
% Polyline
0.000 slw
n 5760 4905 m 5805 4905 l 5805 5940 l 5760 5940 l
 cp gs 0.00 setgray ef gr 
% Polyline
7.500 slw
n 5805 5985 m 5805 6030 l 6975 6120 l
 6975 6075 l gs 0.00 setgray ef gr gs col0 s gr 
% Polyline
0.000 slw
n 4950 4410 m 6975 4410 l 6975 6435 l 4950 6435 l
 cp 
% Ellipse
7.500 slw
n 6795 5670 90 90 0 360 DrawEllipse gs col20 1.00 shd ef gr gs col0 s gr

% Ellipse
n 6795 5175 90 90 0 360 DrawEllipse gs col13 1.00 shd ef gr gs col0 s gr

/Helvetica-Narrow-Bold ff 238.13 scf sf
6210 5760 m
gs 1 -1 sc (ALM) col4 sh gr
/Helvetica-Narrow-Bold ff 238.13 scf sf
6210 5265 m
gs 1 -1 sc (REC) col7 sh gr
% Polyline
n 4950 4968 m
 5760 4968 l gs col7 s gr 
% Polyline
n 4950 5832 m
 5760 5832 l gs col33 s gr 
% Polyline
n 5799 4885 m
 6972 4839 l gs col7 s gr 
% here ends figure;
pagefooter
showpage
%%Trailer
%EOF
